{
    "count": 15,
    "next": "https://a2-sandbox2-uat-be.cynopsis.co/api/customers/?limit=10&offset=10&sort=",
    "prev": null,
    "results": [
        {
            "id": 46820,
            "customerStatus": "CLEARED",
            "customerRiskRating": "LOW",
            "name": "REGA COMPANY #2",
            "customerType": "CORPORATE",
            "aliasNames": [],
            "customerDomainIds": [
                117
            ],
            "primary": true,
            "createdAt": "2022-04-06T16:16:07.472116+08:00",
            "updatedAt": "2024-05-24T12:36:47.131241+08:00",
            "createdById": "79dc4da7-e585-453b-aeab-8de055725104",
            "updatedById": "79dc4da7-e585-453b-aeab-8de055725104",
            "isActiveCustomer": true,
            "referenceId": null,
            "integrationStatus": null,
            "customer": 46820,
            "record": 18602,
            "primaryCrpOf": 46820,
            "status": "CLEARED",
            "riskRating": "LOW",
            "domains": [
                117
            ],
            "natureOfBusinessRelationship": "",
            "updatedBy": {
                "name": "Rega"
            }
        },
        {
            "id": 46507,
            "customerStatus": "ACCEPTED",
            "customerRiskRating": "LOW",
            "name": "PT. TELKOM INDONESIA",
            "customerType": "CORPORATE",
            "aliasNames": [
                "TEST"
            ],
            "customerDomainIds": [
                117
            ],
            "primary": true,
            "createdAt": "2022-04-06T09:07:35.328245+08:00",
            "updatedAt": "2024-05-24T12:35:44.602048+08:00",
            "createdById": "79dc4da7-e585-453b-aeab-8de055725104",
            "updatedById": "79dc4da7-e585-453b-aeab-8de055725104",
            "isActiveCustomer": true,
            "referenceId": null,
            "integrationStatus": null,
            "customer": 46507,
            "record": 18282,
            "primaryCrpOf": 46507,
            "status": "ACCEPTED",
            "riskRating": "LOW",
            "domains": [
                117
            ],
            "natureOfBusinessRelationship": "",
            "updatedBy": {
                "name": "Rega"
            }
        },
        {
            "id": 206555,
            "customerStatus": "ACCEPTED",
            "customerRiskRating": "LOW",
            "name": "SYMMETRY PLUS PTE LTD",
            "customerType": "CORPORATE",
            "aliasNames": [],
            "customerDomainIds": [
                14,
                2,
                117
            ],
            "primary": true,
            "createdAt": "2022-05-06T18:17:52.142532+08:00",
            "updatedAt": "2024-05-24T12:34:39.735398+08:00",
            "createdById": "3b6bfa3c-eb8f-46c4-b5f7-014508d930bd",
            "updatedById": "79dc4da7-e585-453b-aeab-8de055725104",
            "isActiveCustomer": true,
            "referenceId": null,
            "integrationStatus": null,
            "customer": 206555,
            "record": 27222,
            "primaryCrpOf": 206555,
            "status": "ACCEPTED",
            "riskRating": "LOW",
            "domains": [
                14,
                2,
                117
            ],
            "natureOfBusinessRelationship": "",
            "updatedBy": {
                "name": "Rega"
            }
        },
        {
            "id": 247238,
            "customerStatus": "ACCEPTED",
            "customerRiskRating": "HIGH",
            "name": "TEST COMPANYS",
            "customerType": "CORPORATE",
            "aliasNames": [],
            "customerDomainIds": [
                117
            ],
            "primary": true,
            "createdAt": "2022-05-11T07:56:58.699385+08:00",
            "updatedAt": "2022-05-11T09:43:48.510157+08:00",
            "createdById": "79dc4da7-e585-453b-aeab-8de055725104",
            "updatedById": "79dc4da7-e585-453b-aeab-8de055725104",
            "isActiveCustomer": true,
            "referenceId": null,
            "integrationStatus": null,
            "customer": 247238,
            "record": 28385,
            "primaryCrpOf": 247238,
            "status": "ACCEPTED",
            "riskRating": "HIGH",
            "domains": [
                117
            ],
            "natureOfBusinessRelationship": "",
            "updatedBy": {
                "name": "Rega"
            }
        },
        {
            "id": 46814,
            "customerStatus": "DRAFT",
            "customerRiskRating": "UNKNOWN",
            "name": "REGA COMPANY",
            "customerType": "CORPORATE",
            "aliasNames": [],
            "customerDomainIds": [
                117
            ],
            "primary": true,
            "createdAt": "2022-04-06T16:10:50.154675+08:00",
            "updatedAt": "2022-04-06T16:10:50.154681+08:00",
            "createdById": "79dc4da7-e585-453b-aeab-8de055725104",
            "updatedById": "79dc4da7-e585-453b-aeab-8de055725104",
            "isActiveCustomer": true,
            "referenceId": null,
            "integrationStatus": null,
            "customer": 46814,
            "record": 18596,
            "primaryCrpOf": 46814,
            "status": "DRAFT",
            "riskRating": "UNKNOWN",
            "domains": [
                117
            ],
            "natureOfBusinessRelationship": "",
            "updatedBy": {
                "name": "Rega"
            }
        },
        {
            "id": 46506,
            "customerStatus": "PENDING",
            "customerRiskRating": "UNKNOWN",
            "name": "TEST COMPANY",
            "customerType": "CORPORATE",
            "aliasNames": [
                "TEST"
            ],
            "customerDomainIds": [
                117
            ],
            "primary": true,
            "createdAt": "2022-04-06T08:38:34.649247+08:00",
            "updatedAt": "2022-04-06T08:58:27.206194+08:00",
            "createdById": "79dc4da7-e585-453b-aeab-8de055725104",
            "updatedById": "79dc4da7-e585-453b-aeab-8de055725104",
            "isActiveCustomer": true,
            "referenceId": null,
            "integrationStatus": null,
            "customer": 46506,
            "record": 18278,
            "primaryCrpOf": 46506,
            "status": "PENDING",
            "riskRating": "UNKNOWN",
            "domains": [
                117
            ],
            "natureOfBusinessRelationship": "",
            "updatedBy": {
                "name": "Rega"
            }
        },
        {
            "id": 39777,
            "customerStatus": "ACCEPTED",
            "customerRiskRating": "MEDIUM",
            "name": "PT. TABEL DATA INFORMATIKA",
            "customerType": "CORPORATE",
            "aliasNames": [
                "TDI",
                "Tabel Data Informatika"
            ],
            "customerDomainIds": [
                117
            ],
            "primary": true,
            "createdAt": "2022-03-12T21:59:43.168857+08:00",
            "updatedAt": "2022-03-12T22:02:19.211255+08:00",
            "createdById": "79dc4da7-e585-453b-aeab-8de055725104",
            "updatedById": "79dc4da7-e585-453b-aeab-8de055725104",
            "isActiveCustomer": true,
            "referenceId": null,
            "integrationStatus": null,
            "customer": 39777,
            "record": 11834,
            "primaryCrpOf": 39777,
            "status": "ACCEPTED",
            "riskRating": "MEDIUM",
            "domains": [
                117
            ],
            "natureOfBusinessRelationship": "",
            "updatedBy": {
                "name": "Rega"
            }
        },
        {
            "id": 39776,
            "customerStatus": "ACCEPTED",
            "customerRiskRating": "MEDIUM",
            "name": "PT. MULTIPOLAR TECHNOLOGY TBK.",
            "customerType": "CORPORATE",
            "aliasNames": [
                "Multipolar Technology"
            ],
            "customerDomainIds": [
                117
            ],
            "primary": true,
            "createdAt": "2022-03-12T21:53:35.896610+08:00",
            "updatedAt": "2022-03-12T21:57:03.672754+08:00",
            "createdById": "79dc4da7-e585-453b-aeab-8de055725104",
            "updatedById": "79dc4da7-e585-453b-aeab-8de055725104",
            "isActiveCustomer": true,
            "referenceId": null,
            "integrationStatus": null,
            "customer": 39776,
            "record": 11832,
            "primaryCrpOf": 39776,
            "status": "ACCEPTED",
            "riskRating": "MEDIUM",
            "domains": [
                117
            ],
            "natureOfBusinessRelationship": "",
            "updatedBy": {
                "name": "Rega"
            }
        },
        {
            "id": 38469,
            "customerStatus": "CLEARED",
            "customerRiskRating": "LOW",
            "name": "MERLION HOLDINGS PTE LTD",
            "customerType": "CORPORATE",
            "aliasNames": [],
            "customerDomainIds": [
                117
            ],
            "primary": true,
            "createdAt": "2022-03-01T18:20:31.803524+08:00",
            "updatedAt": "2022-03-01T18:20:35.139295+08:00",
            "createdById": "a3756741-6456-4889-8b24-a1f56f65c230",
            "updatedById": "a3756741-6456-4889-8b24-a1f56f65c230",
            "isActiveCustomer": true,
            "referenceId": null,
            "integrationStatus": null,
            "customer": 38469,
            "record": 10474,
            "primaryCrpOf": 38469,
            "status": "CLEARED",
            "riskRating": "LOW",
            "domains": [
                117
            ],
            "natureOfBusinessRelationship": "",
            "updatedBy": {
                "name": "Frederick Victor"
            }
        },
        {
            "id": 38468,
            "customerStatus": "CLEARED",
            "customerRiskRating": "LOW",
            "name": "BONG TJIN KO",
            "customerType": "INDIVIDUAL",
            "aliasNames": [],
            "customerDomainIds": [
                117
            ],
            "primary": true,
            "createdAt": "2022-03-01T17:50:24.353150+08:00",
            "updatedAt": "2022-03-01T17:53:04.333254+08:00",
            "createdById": "a3756741-6456-4889-8b24-a1f56f65c230",
            "updatedById": "a3756741-6456-4889-8b24-a1f56f65c230",
            "isActiveCustomer": true,
            "referenceId": null,
            "integrationStatus": null,
            "customer": 38468,
            "record": 10473,
            "primaryCrpOf": 38468,
            "status": "CLEARED",
            "riskRating": "LOW",
            "domains": [
                117
            ],
            "natureOfBusinessRelationship": "",
            "updatedBy": {
                "name": "Frederick Victor"
            }
        }
    ]
}